[
	{
		"id": 82,
		"name": "Background05",
		"layerFrame": {
			"x": 0,
			"y": 0,
			"width": 640,
			"height": 1136
		},
		"maskFrame": null,
		"image": {
			"path": "images/Background05.png",
			"frame": {
				"x": 0,
				"y": 0,
				"width": 640,
				"height": 1136
			}
		},
		"imageType": "png",
		"children": [
			
		],
		"modification": "390689738"
	},
	{
		"id": 80,
		"name": "Sameen05",
		"layerFrame": {
			"x": 0,
			"y": 0,
			"width": 640,
			"height": 1136
		},
		"maskFrame": null,
		"image": {
			"path": "images/Sameen05.png",
			"frame": {
				"x": 349,
				"y": 145,
				"width": 190,
				"height": 216
			}
		},
		"imageType": "png",
		"children": [
			
		],
		"modification": "390689735"
	}
]